jean-edav
…
library(stats)

data <- read_csv('CleanObesityDataSet.csv',show_col_types = FALSE)

New names:
• `` -> `...1`

data_pca <- data[c("Age", "Height", "Weight", "NCP", "CH2O", "FAF", "CALC", "TUE")]

data_pca

# A tibble: 2,111 × 8
     Age Height Weight   NCP  CH2O   FAF CALC         TUE
   <dbl>  <dbl>  <dbl> <dbl> <dbl> <dbl> <chr>      <dbl>
 1    21   1.62   64       3     2     0 no             1
 2    21   1.52   56       3     3     3 Sometimes      0
 3    23   1.8    77       3     2     2 Frequently     1
 4    27   1.8    87       3     2     2 Frequently     0
 5    22   1.78   89.8     1     2     0 Sometimes      0
 6    29   1.62   53       3     2     0 Sometimes      0
 7    23   1.5    55       3     2     1 Sometimes      0
 8    22   1.64   53       3     2     3 Sometimes      0
 9    24   1.78   64       3     2     1 Frequently     1
10    22   1.72   68       3     2     1 no             1
# ℹ 2,101 more rows
…
